INFO:werkzeug:127.0.0.1 - - [22/Apr/2021 07:46:05] "[37mOPTIONS /getLoggedinUser HTTP/1.1[0m" 200 -
INFO:werkzeug:127.0.0.1 - - [22/Apr/2021 07:46:05] "[37mPOST /getLoggedinUser HTTP/1.1[0m" 200 -
INFO:werkzeug:127.0.0.1 - - [22/Apr/2021 07:46:06] "[37mOPTIONS /getAllPosts HTTP/1.1[0m" 200 -
INFO:werkzeug:127.0.0.1 - - [22/Apr/2021 07:46:06] "[37mPOST /getAllPosts HTTP/1.1[0m" 200 -
INFO:werkzeug:127.0.0.1 - - [22/Apr/2021 07:46:09] "[37mOPTIONS /logout HTTP/1.1[0m" 200 -
INFO:werkzeug:127.0.0.1 - - [22/Apr/2021 07:46:09] "[37mPOST /logout HTTP/1.1[0m" 200 -
INFO:werkzeug:127.0.0.1 - - [22/Apr/2021 07:46:09] "[37mPOST /getLoggedinUser HTTP/1.1[0m" 200 -
INFO:werkzeug:127.0.0.1 - - [22/Apr/2021 07:46:12] "[37mOPTIONS /login HTTP/1.1[0m" 200 -
INFO:werkzeug:127.0.0.1 - - [22/Apr/2021 07:46:12] "[37mPOST /login HTTP/1.1[0m" 200 -
INFO:werkzeug:127.0.0.1 - - [22/Apr/2021 07:46:12] "[37mOPTIONS /getAllPosts HTTP/1.1[0m" 200 -
INFO:werkzeug:127.0.0.1 - - [22/Apr/2021 07:46:12] "[37mPOST /getAllPosts HTTP/1.1[0m" 200 -
INFO:werkzeug:127.0.0.1 - - [22/Apr/2021 07:46:25] "[37mOPTIONS /logout HTTP/1.1[0m" 200 -
INFO:werkzeug:127.0.0.1 - - [22/Apr/2021 07:46:25] "[37mPOST /logout HTTP/1.1[0m" 200 -
INFO:werkzeug:127.0.0.1 - - [22/Apr/2021 07:46:25] "[37mOPTIONS /getLoggedinUser HTTP/1.1[0m" 200 -
INFO:werkzeug:127.0.0.1 - - [22/Apr/2021 07:46:25] "[37mPOST /getLoggedinUser HTTP/1.1[0m" 200 -
INFO:werkzeug:127.0.0.1 - - [22/Apr/2021 07:46:28] "[37mOPTIONS /login HTTP/1.1[0m" 200 -
INFO:werkzeug:127.0.0.1 - - [22/Apr/2021 07:46:28] "[37mPOST /login HTTP/1.1[0m" 200 -
INFO:werkzeug:127.0.0.1 - - [22/Apr/2021 07:46:28] "[37mOPTIONS /getAllPosts HTTP/1.1[0m" 200 -
INFO:werkzeug:127.0.0.1 - - [22/Apr/2021 07:46:28] "[37mPOST /getAllPosts HTTP/1.1[0m" 200 -
INFO:werkzeug:127.0.0.1 - - [22/Apr/2021 07:47:54] "[37mOPTIONS /getLoggedinUser HTTP/1.1[0m" 200 -
INFO:werkzeug:127.0.0.1 - - [22/Apr/2021 07:47:54] "[37mPOST /getLoggedinUser HTTP/1.1[0m" 200 -
INFO:werkzeug:127.0.0.1 - - [22/Apr/2021 07:47:54] "[37mOPTIONS /getAllPosts HTTP/1.1[0m" 200 -
INFO:werkzeug:127.0.0.1 - - [22/Apr/2021 07:47:54] "[37mPOST /getAllPosts HTTP/1.1[0m" 200 -
INFO:werkzeug:127.0.0.1 - - [22/Apr/2021 07:47:58] "[37mPOST /getLoggedinUser HTTP/1.1[0m" 200 -
INFO:werkzeug:127.0.0.1 - - [22/Apr/2021 07:47:58] "[37mPOST /getAllPosts HTTP/1.1[0m" 200 -
INFO:werkzeug:127.0.0.1 - - [22/Apr/2021 07:59:18] "[37mOPTIONS /getLoggedinUser HTTP/1.1[0m" 200 -
INFO:werkzeug:127.0.0.1 - - [22/Apr/2021 07:59:18] "[37mPOST /getLoggedinUser HTTP/1.1[0m" 200 -
INFO:werkzeug:127.0.0.1 - - [22/Apr/2021 07:59:18] "[37mOPTIONS /getAllPosts HTTP/1.1[0m" 200 -
INFO:werkzeug:127.0.0.1 - - [22/Apr/2021 07:59:18] "[37mPOST /getAllPosts HTTP/1.1[0m" 200 -
INFO:werkzeug:127.0.0.1 - - [22/Apr/2021 07:59:21] "[37mOPTIONS /logout HTTP/1.1[0m" 200 -
INFO:werkzeug:127.0.0.1 - - [22/Apr/2021 07:59:21] "[37mPOST /logout HTTP/1.1[0m" 200 -
INFO:werkzeug:127.0.0.1 - - [22/Apr/2021 07:59:21] "[37mPOST /getLoggedinUser HTTP/1.1[0m" 200 -
INFO:werkzeug:127.0.0.1 - - [22/Apr/2021 07:59:22] "[37mOPTIONS /login HTTP/1.1[0m" 200 -
INFO:werkzeug:127.0.0.1 - - [22/Apr/2021 07:59:22] "[37mPOST /login HTTP/1.1[0m" 200 -
INFO:werkzeug:127.0.0.1 - - [22/Apr/2021 07:59:22] "[37mPOST /getAllPosts HTTP/1.1[0m" 200 -
INFO:werkzeug:127.0.0.1 - - [22/Apr/2021 08:02:29] "[37mOPTIONS /login HTTP/1.1[0m" 200 -
INFO:werkzeug:127.0.0.1 - - [22/Apr/2021 08:02:29] "[37mPOST /login HTTP/1.1[0m" 200 -
INFO:werkzeug:127.0.0.1 - - [22/Apr/2021 08:02:29] "[37mOPTIONS /getAllPosts HTTP/1.1[0m" 200 -
INFO:werkzeug:127.0.0.1 - - [22/Apr/2021 08:02:29] "[37mPOST /getAllPosts HTTP/1.1[0m" 200 -
INFO:werkzeug:127.0.0.1 - - [22/Apr/2021 08:03:41] "[37mOPTIONS /logout HTTP/1.1[0m" 200 -
INFO:werkzeug:127.0.0.1 - - [22/Apr/2021 08:03:41] "[37mPOST /logout HTTP/1.1[0m" 200 -
INFO:werkzeug:127.0.0.1 - - [22/Apr/2021 08:03:41] "[37mOPTIONS /getLoggedinUser HTTP/1.1[0m" 200 -
INFO:werkzeug:127.0.0.1 - - [22/Apr/2021 08:03:41] "[37mPOST /getLoggedinUser HTTP/1.1[0m" 200 -
INFO:werkzeug:127.0.0.1 - - [22/Apr/2021 08:03:47] "[37mOPTIONS /login HTTP/1.1[0m" 200 -
INFO:werkzeug:127.0.0.1 - - [22/Apr/2021 08:03:47] "[37mPOST /login HTTP/1.1[0m" 200 -
INFO:werkzeug:127.0.0.1 - - [22/Apr/2021 08:03:47] "[37mOPTIONS /getAllPosts HTTP/1.1[0m" 200 -
INFO:werkzeug:127.0.0.1 - - [22/Apr/2021 08:03:47] "[37mPOST /getAllPosts HTTP/1.1[0m" 200 -
INFO:werkzeug:127.0.0.1 - - [22/Apr/2021 08:05:22] "[37mOPTIONS /addNewPost HTTP/1.1[0m" 200 -
INFO:werkzeug:127.0.0.1 - - [22/Apr/2021 08:05:22] "[37mPOST /addNewPost HTTP/1.1[0m" 200 -
INFO:werkzeug:127.0.0.1 - - [22/Apr/2021 08:05:22] "[37mOPTIONS /getAllPosts HTTP/1.1[0m" 200 -
INFO:werkzeug:127.0.0.1 - - [22/Apr/2021 08:05:22] "[37mPOST /getAllPosts HTTP/1.1[0m" 200 -
INFO:werkzeug:127.0.0.1 - - [22/Apr/2021 08:19:42] "[37mOPTIONS /getLoggedinUser HTTP/1.1[0m" 200 -
INFO:werkzeug:127.0.0.1 - - [22/Apr/2021 08:19:42] "[37mPOST /getLoggedinUser HTTP/1.1[0m" 200 -
INFO:werkzeug:127.0.0.1 - - [22/Apr/2021 08:19:42] "[37mOPTIONS /getAllPosts HTTP/1.1[0m" 200 -
INFO:werkzeug:127.0.0.1 - - [22/Apr/2021 08:19:42] "[37mPOST /getAllPosts HTTP/1.1[0m" 200 -
INFO:werkzeug:127.0.0.1 - - [22/Apr/2021 08:19:45] "[37mOPTIONS /logout HTTP/1.1[0m" 200 -
INFO:werkzeug:127.0.0.1 - - [22/Apr/2021 08:19:45] "[37mPOST /logout HTTP/1.1[0m" 200 -
INFO:werkzeug:127.0.0.1 - - [22/Apr/2021 08:19:45] "[37mPOST /getLoggedinUser HTTP/1.1[0m" 200 -
INFO:werkzeug:127.0.0.1 - - [22/Apr/2021 08:19:48] "[37mOPTIONS /login HTTP/1.1[0m" 200 -
INFO:werkzeug:127.0.0.1 - - [22/Apr/2021 08:19:48] "[37mPOST /login HTTP/1.1[0m" 200 -
INFO:werkzeug:127.0.0.1 - - [22/Apr/2021 08:19:48] "[37mOPTIONS /getAllPosts HTTP/1.1[0m" 200 -
INFO:werkzeug:127.0.0.1 - - [22/Apr/2021 08:19:48] "[37mPOST /getAllPosts HTTP/1.1[0m" 200 -
INFO:werkzeug:127.0.0.1 - - [22/Apr/2021 14:17:29] "[37mOPTIONS /getLoggedinUser HTTP/1.1[0m" 200 -
INFO:werkzeug:127.0.0.1 - - [22/Apr/2021 14:17:29] "[37mPOST /getLoggedinUser HTTP/1.1[0m" 200 -
INFO:werkzeug:127.0.0.1 - - [22/Apr/2021 14:17:29] "[37mOPTIONS /getAllPosts HTTP/1.1[0m" 200 -
INFO:werkzeug:127.0.0.1 - - [22/Apr/2021 14:17:29] "[37mPOST /getAllPosts HTTP/1.1[0m" 200 -
INFO:werkzeug:127.0.0.1 - - [22/Apr/2021 14:24:37] "[37mOPTIONS /addNewPost HTTP/1.1[0m" 200 -
INFO:werkzeug:127.0.0.1 - - [22/Apr/2021 14:24:37] "[37mPOST /addNewPost HTTP/1.1[0m" 200 -
INFO:werkzeug:127.0.0.1 - - [22/Apr/2021 14:24:37] "[37mOPTIONS /getAllPosts HTTP/1.1[0m" 200 -
INFO:werkzeug:127.0.0.1 - - [22/Apr/2021 14:24:37] "[37mPOST /getAllPosts HTTP/1.1[0m" 200 -
INFO:werkzeug:127.0.0.1 - - [22/Apr/2021 15:15:10] "[37mOPTIONS /getLoggedinUser HTTP/1.1[0m" 200 -
INFO:werkzeug:127.0.0.1 - - [22/Apr/2021 15:15:10] "[37mPOST /getLoggedinUser HTTP/1.1[0m" 200 -
INFO:werkzeug:127.0.0.1 - - [22/Apr/2021 15:15:10] "[37mOPTIONS /getAllPosts HTTP/1.1[0m" 200 -
INFO:werkzeug:127.0.0.1 - - [22/Apr/2021 15:15:10] "[37mPOST /getAllPosts HTTP/1.1[0m" 200 -
INFO:werkzeug:127.0.0.1 - - [23/Apr/2021 19:26:26] "[37mOPTIONS /getLoggedinUser HTTP/1.1[0m" 200 -
INFO:werkzeug:127.0.0.1 - - [23/Apr/2021 19:26:26] "[37mPOST /getLoggedinUser HTTP/1.1[0m" 200 -
INFO:werkzeug:127.0.0.1 - - [23/Apr/2021 19:26:26] "[37mOPTIONS /getAllPosts HTTP/1.1[0m" 200 -
INFO:werkzeug:127.0.0.1 - - [23/Apr/2021 19:26:26] "[37mPOST /getAllPosts HTTP/1.1[0m" 200 -
INFO:werkzeug:127.0.0.1 - - [25/Apr/2021 01:52:47] "[37mOPTIONS /getLoggedinUser HTTP/1.1[0m" 200 -
INFO:werkzeug:127.0.0.1 - - [25/Apr/2021 01:52:47] "[37mOPTIONS /getAllPosts HTTP/1.1[0m" 200 -
INFO:werkzeug:127.0.0.1 - - [25/Apr/2021 01:52:47] "[37mPOST /getLoggedinUser HTTP/1.1[0m" 200 -
INFO:werkzeug:127.0.0.1 - - [25/Apr/2021 01:52:47] "[37mPOST /getAllPosts HTTP/1.1[0m" 200 -
INFO:werkzeug:127.0.0.1 - - [25/Apr/2021 12:24:04] "[37mOPTIONS /getLoggedinUser HTTP/1.1[0m" 200 -
INFO:werkzeug:127.0.0.1 - - [25/Apr/2021 12:24:04] "[37mPOST /getLoggedinUser HTTP/1.1[0m" 200 -
INFO:werkzeug:127.0.0.1 - - [25/Apr/2021 12:24:04] "[37mOPTIONS /getAllPosts HTTP/1.1[0m" 200 -
INFO:werkzeug:127.0.0.1 - - [25/Apr/2021 12:24:04] "[37mPOST /getAllPosts HTTP/1.1[0m" 200 -
INFO:werkzeug: * Running on http://127.0.0.1:5000/ (Press CTRL+C to quit)
INFO:werkzeug:127.0.0.1 - - [31/May/2021 23:33:39] "[37mOPTIONS /login HTTP/1.1[0m" 200 -
INFO:werkzeug:127.0.0.1 - - [31/May/2021 23:33:39] "[37mPOST /login HTTP/1.1[0m" 200 -
INFO:werkzeug:127.0.0.1 - - [31/May/2021 23:33:40] "[37mOPTIONS /getAllPosts HTTP/1.1[0m" 200 -
INFO:werkzeug:127.0.0.1 - - [31/May/2021 23:33:40] "[37mPOST /getAllPosts HTTP/1.1[0m" 200 -
INFO:werkzeug:127.0.0.1 - - [31/May/2021 23:34:09] "[37mOPTIONS /addNewPost HTTP/1.1[0m" 200 -
INFO:werkzeug:127.0.0.1 - - [31/May/2021 23:34:09] "[37mPOST /addNewPost HTTP/1.1[0m" 200 -
INFO:werkzeug:127.0.0.1 - - [31/May/2021 23:34:09] "[37mOPTIONS /getAllPosts HTTP/1.1[0m" 200 -
INFO:werkzeug:127.0.0.1 - - [31/May/2021 23:34:09] "[37mPOST /getAllPosts HTTP/1.1[0m" 200 -
INFO:werkzeug:127.0.0.1 - - [31/May/2021 23:34:17] "[37mOPTIONS /getLoggedinUser HTTP/1.1[0m" 200 -
INFO:werkzeug:127.0.0.1 - - [31/May/2021 23:34:17] "[37mPOST /getLoggedinUser HTTP/1.1[0m" 200 -
INFO:werkzeug:127.0.0.1 - - [31/May/2021 23:34:17] "[37mOPTIONS /getAllPosts HTTP/1.1[0m" 200 -
INFO:werkzeug:127.0.0.1 - - [31/May/2021 23:34:17] "[37mPOST /getAllPosts HTTP/1.1[0m" 200 -
INFO:werkzeug:127.0.0.1 - - [31/May/2021 23:34:26] "[37mOPTIONS /logout HTTP/1.1[0m" 200 -
INFO:werkzeug:127.0.0.1 - - [31/May/2021 23:34:26] "[37mPOST /logout HTTP/1.1[0m" 200 -
INFO:werkzeug:127.0.0.1 - - [31/May/2021 23:34:26] "[37mOPTIONS /getLoggedinUser HTTP/1.1[0m" 200 -
INFO:werkzeug:127.0.0.1 - - [31/May/2021 23:34:26] "[37mPOST /getLoggedinUser HTTP/1.1[0m" 200 -
INFO:werkzeug:127.0.0.1 - - [31/May/2021 23:34:32] "[37mOPTIONS /login HTTP/1.1[0m" 200 -
INFO:werkzeug:127.0.0.1 - - [31/May/2021 23:34:32] "[37mPOST /login HTTP/1.1[0m" 200 -
INFO:werkzeug:127.0.0.1 - - [31/May/2021 23:34:32] "[37mOPTIONS /getAllPosts HTTP/1.1[0m" 200 -
INFO:werkzeug:127.0.0.1 - - [31/May/2021 23:34:32] "[37mPOST /getAllPosts HTTP/1.1[0m" 200 -
INFO:werkzeug: * Running on http://127.0.0.1:5000/ (Press CTRL+C to quit)
INFO:werkzeug: * Running on http://127.0.0.1:5000/ (Press CTRL+C to quit)
INFO:werkzeug: * Running on http://127.0.0.1:5000/ (Press CTRL+C to quit)
INFO:werkzeug: * Running on http://0.0.0.0:5000/ (Press CTRL+C to quit)
INFO:werkzeug: * Restarting with stat
WARNING:werkzeug: * Debugger is active!
INFO:werkzeug: * Debugger PIN: 122-673-330
